w    a	    b	   c	 d	    e	   f	 p
f1   0      0      0    .16     0      0    .01
f2   .85   .04   -.04    .85     0    1.6    .85
f3   .2   -.26    .23    .22     0    1.6    .07
f4  -.15   .28    .26    .24     0     .44   .07